<svg width="14" height="14" viewBox="0 0 14 14" fill="none" xmlns="http://www.w3.org/2000/svg">
<path fill-rule="evenodd" clip-rule="evenodd" d="M0.25 7.00415C0.25 6.58994 0.585786 6.25415 1 6.25415H13C13.4142 6.25415 13.75 6.58994 13.75 7.00415C13.75 7.41836 13.4142 7.75415 13 7.75415H1C0.585786 7.75415 0.25 7.41836 0.25 7.00415Z" fill="#1C1B1E"/>
<path fill-rule="evenodd" clip-rule="evenodd" d="M6.46967 0.46967C6.76256 0.176777 7.23744 0.176777 7.53033 0.46967L13.5303 6.46967C13.8232 6.76256 13.8232 7.23744 13.5303 7.53033L7.53033 13.5303C7.23744 13.8232 6.76256 13.8232 6.46967 13.5303C6.17678 13.2374 6.17678 12.7626 6.46967 12.4697L11.9393 7L6.46967 1.53033C6.17678 1.23744 6.17678 0.762563 6.46967 0.46967Z" fill="#1C1B1E"/>
</svg>
